{
    "_id": "HnPd9Vqh5NHKEdRq",
    "data": {
        "attributes": {
            "ac": {
                "value": 21
            },
            "hardness": 12,
            "hasHealth": true,
            "hp": {
                "details": "; <b>Panel Hardness</b>5, <b>Panel HP</b> 20 (BT 10)",
                "max": 48,
                "temp": 0,
                "tempmax": 0,
                "value": 48
            },
            "stealth": {
                "details": "(trained) or DC 26 (expert) to notice the control panel",
                "value": 11
            }
        },
        "creatureType": "",
        "details": {
            "description": "A metal pole with three razor-sharp spinning blades is hidden in the floor, connected to trigger plates in up to eight floor tiles and a hidden control panel within 30 feet.",
            "disable": "Thievery DC 21 (trained) twice on the pillar, or Thievery DC 19 (expert) once on the control panel deactivates the whole trap. Breaking the control panel prevents anyone from disabling the trap using the control panel and prevents the trap from deactivating automatically (see Reset below).",
            "isComplex": true,
            "level": {
                "value": 4
            },
            "reset": "The trap deactivates and resets after 1 minute.",
            "routine": "(3 actions) The trap uses its first action to make a spinning blade Strike against each adjacent creature, its second action to move straight in a random direction (roll 1d4 to determine the direction), and its third action to make a spinning blade Strike against each adjacent creature. This trap doesn't take a multiple attack penalty."
        },
        "saves": {
            "fortitude": {
                "saveDetail": "",
                "value": 10
            },
            "reflex": {
                "saveDetail": "",
                "value": 12
            },
            "will": {
                "saveDetail": "",
                "value": 0
            }
        },
        "source": {
            "value": "Pathfinder Core Rulebook"
        },
        "statusEffects": [],
        "traits": {
            "ci": [],
            "di": {
                "custom": "",
                "selected": {},
                "value": [
                    "critical-hits",
                    "object-immunities",
                    "precision"
                ]
            },
            "dr": [],
            "dv": [],
            "rarity": {
                "value": "common"
            },
            "size": {
                "value": "med"
            },
            "traits": {
                "custom": "",
                "value": [
                    "mechanical"
                ]
            }
        }
    },
    "effects": [],
    "flags": {},
    "img": "systems/pf2e/icons/default-icons/hazard.svg",
    "items": [
        {
            "_id": "F0I1pLJQm1AQtXPH",
            "data": {
                "actionCategory": {
                    "value": ""
                },
                "actionType": {
                    "value": "reaction"
                },
                "actions": {
                    "value": null
                },
                "description": {
                    "value": "<p data-visibility=\"gm\"><strong>Trigger</strong> A creature steps on one of the trapped floor tiles.</p>\n<p><strong>Effect</strong> The trap pops up in a grid intersection and makes a spinning blade attack against one adjacent creature (if any), then rolls initiative.</p>"
                },
                "requirements": {
                    "value": ""
                },
                "rules": [],
                "slug": null,
                "source": {
                    "value": ""
                },
                "traits": {
                    "custom": "",
                    "rarity": {
                        "value": "common"
                    },
                    "value": [
                        "attack"
                    ]
                },
                "trigger": {
                    "value": ""
                },
                "weapon": {
                    "value": ""
                }
            },
            "effects": [],
            "flags": {},
            "img": "systems/pf2e/icons/actions/Reaction.webp",
            "name": "Rising Pillar",
            "sort": 100000,
            "type": "action"
        },
        {
            "_id": "6wV9i41Jd4HThaAi",
            "data": {
                "actionCategory": {
                    "value": ""
                },
                "actionType": {
                    "value": "passive"
                },
                "actions": {
                    "value": null
                },
                "description": {
                    "value": "<p>10 feet</p>"
                },
                "requirements": {
                    "value": ""
                },
                "rules": [],
                "slug": null,
                "source": {
                    "value": ""
                },
                "traits": {
                    "custom": "",
                    "rarity": {
                        "value": "common"
                    },
                    "value": []
                },
                "trigger": {
                    "value": ""
                },
                "weapon": {
                    "value": ""
                }
            },
            "effects": [],
            "flags": {},
            "img": "systems/pf2e/icons/actions/Passive.webp",
            "name": "Speed",
            "sort": 200000,
            "type": "action"
        },
        {
            "_id": "vS5xxWVCLY1BNE4O",
            "data": {
                "attack": {
                    "value": ""
                },
                "attackEffects": {
                    "custom": "",
                    "value": []
                },
                "bonus": {
                    "value": 12
                },
                "damageRolls": {
                    "hbbjiswyk7luxxtmpf26": {
                        "damage": "2d10+5",
                        "damageType": "slashing"
                    }
                },
                "description": {
                    "value": ""
                },
                "rules": [],
                "slug": null,
                "source": {
                    "value": ""
                },
                "traits": {
                    "custom": "",
                    "rarity": {
                        "value": "common"
                    },
                    "value": []
                },
                "weaponType": {
                    "value": "melee"
                }
            },
            "effects": [],
            "flags": {},
            "img": "systems/pf2e/icons/default-icons/melee.svg",
            "name": "Spinning Blade",
            "sort": 300000,
            "type": "melee"
        }
    ],
    "name": "Spinning Blade Pillar",
    "token": {
        "disposition": 0,
        "height": 1,
        "img": "systems/pf2e/icons/default-icons/hazard.svg",
        "name": "Spinning Blade Pillar",
        "width": 1
    },
    "type": "hazard"
}
