{
    "_id": "MgiZ25JdT6O3fLbO",
    "data": {
        "boosts": {
            "0": {
                "value": [
                    "cha",
                    "con"
                ]
            },
            "1": {
                "value": [
                    "cha",
                    "con",
                    "dex",
                    "int",
                    "str",
                    "wis"
                ]
            }
        },
        "description": {
            "value": "<p>You've seen the sorts of things that technology brings- polluted environments, workers put out of their jobs or horribly injured, and the slow erosion of society-and you've vowed to inform the larger world of these ills. You do so with long, impassioned speeches on street corners and village squares and by talking personally with the heads of various guilds. Adventuring into the wider world could help spread your message even farther.</p>\n<p>Choose two ability boosts. One must be to <strong>Constitution</strong> or <strong>Charisma</strong>, and one is a free ability boost.</p>\n<p>You're trained in the Intimidation skill and the Guild Lore skill. You gain the @Compendium[pf2e.feats-srd.Group Coercion]{Group Coercion} skill feat.</p>"
        },
        "items": {
            "pppm5": {
                "id": "gUqvezs2zzoTXFAI",
                "img": "systems/pf2e/icons/features/feats/feats.webp",
                "level": 1,
                "name": "Group Coercion",
                "pack": "pf2e.feats-srd"
            }
        },
        "rules": [],
        "source": {
            "value": "Pathfinder Guns & Gears"
        },
        "trainedLore": "Guild",
        "trainedSkills": {
            "custom": "",
            "value": [
                "itm"
            ]
        },
        "traits": {
            "custom": "",
            "rarity": {
                "value": "common"
            },
            "value": []
        }
    },
    "effects": [],
    "flags": {},
    "img": "systems/pf2e/icons/default-icons/background.svg",
    "name": "Anti-Tech Activist",
    "type": "background"
}
