{
    "_id": "P65AGDPkhD2B4JtG",
    "data": {
        "boosts": {
            "0": {
                "value": [
                    "dex",
                    "wis"
                ]
            },
            "1": {
                "value": [
                    "cha",
                    "con",
                    "dex",
                    "int",
                    "str",
                    "wis"
                ]
            }
        },
        "description": {
            "value": "<p><strong>Prerequisite</strong>: Region - Impossible Lands</p>\n<hr />\n<p>You aspire to perfect your body and mind in the tradition of Jalmeray's Houses of Perfection, honing your acrobatic skills and mental faculties in preparation for a lifetime pushing the edge of what most consider possible.</p>\n<p>Choose two ability boosts. One must be to <strong>Dexterity</strong> or <strong>Wisdom</strong>, and one is a free ability boost.</p>\n<p>You're trained in the Acrobatics skill as well as the Warfare Lore skill. You gain the @Compendium[pf2e.feats-srd.Cat Fall]{Cat Fall} skill feat.</p>"
        },
        "items": {
            "k542i": {
                "id": "LQw0yIMDUJJkq1nD",
                "img": "systems/pf2e/icons/features/feats/feats.webp",
                "level": "1",
                "name": "Cat Fall",
                "pack": "pf2e.feats-srd"
            }
        },
        "rules": [],
        "source": {
            "value": "Pathfinder Lost Omens: World Guide"
        },
        "trainedLore": "Warfare Lore",
        "trainedSkills": {
            "value": [
                "acr"
            ]
        },
        "traits": {
            "custom": "",
            "rarity": {
                "value": "common"
            },
            "value": []
        }
    },
    "effects": [],
    "flags": {},
    "img": "systems/pf2e/icons/default-icons/background.svg",
    "name": "Perfection Seeker",
    "type": "background"
}
