{
    "_id": "ifsBwfIhd6UcoUCI",
    "data": {
        "baseItem": null,
        "brokenThreshold": {
            "value": 0
        },
        "bulkCapacity": {
            "value": ""
        },
        "collapsed": {
            "value": false
        },
        "containerId": {
            "value": ""
        },
        "description": {
            "value": "<p>Different versions of this belt are customized to appear to suit specific trades, so a belt used for carpentry would look somewhat different than a belt for baking.</p>\n<p><strong>Activate</strong> <span class=\"pf2-icon\">D</span> envision, Interact</p>\n<p><strong>Effect</strong> You place an object of up to 1 Bulk into the belt, transforming that object into a tool befitting the trade for which the belt was created. As long as there are enough transformed items, the belt can be used as artisan's tools for that trade.</p>\n<p>Each object remains transformed until it has been removed from the belt for 24 hours or someone uses a single Interact action to return it to its normal form.</p>"
        },
        "equipped": {
            "value": false
        },
        "equippedBulk": {
            "value": ""
        },
        "hardness": {
            "value": 0
        },
        "hp": {
            "value": 0
        },
        "identification": {
            "misidentified": {},
            "status": "identified",
            "unidentified": {
                "data": {
                    "description": {
                        "value": ""
                    }
                },
                "img": "",
                "name": ""
            }
        },
        "invested": {
            "value": false
        },
        "level": {
            "value": 6
        },
        "maxHp": {
            "value": 0
        },
        "negateBulk": {
            "value": ""
        },
        "preciousMaterial": {
            "value": ""
        },
        "preciousMaterialGrade": {
            "value": ""
        },
        "price": {
            "value": "220 gp"
        },
        "quantity": {
            "value": 1
        },
        "rules": [],
        "size": {
            "value": "med"
        },
        "source": {
            "value": "Pathfinder #147: Tomorrow Must Burn"
        },
        "stackGroup": {
            "value": ""
        },
        "traits": {
            "custom": "",
            "rarity": {
                "value": "rare"
            },
            "value": [
                "invested",
                "magical",
                "transmutation"
            ]
        },
        "usage": {
            "value": "wornbelt"
        },
        "weight": {
            "value": "1"
        }
    },
    "effects": [],
    "flags": {},
    "img": "systems/pf2e/icons/equipment/worn-items/other-worn-items/bellflower-toolbelt.webp",
    "name": "Bellflower Toolbelt",
    "type": "equipment"
}
