{
    "_id": "xE2CGurZp4eHc1Oc",
    "data": {
        "baseItem": null,
        "brokenThreshold": {
            "value": 0
        },
        "bulkCapacity": {
            "value": ""
        },
        "collapsed": {
            "value": false
        },
        "containerId": {
            "value": ""
        },
        "description": {
            "value": "<p>This armored case is made to protect any Tiny or smaller creature contained within. It includes air holes (which can be plugged with cork stoppers for underwater travel) and two receptacles for food and water. Any creature inside has neither line of sight nor line of effect to the outside world but also cannot be targeted by attacks that require a line of effect while in the satchel. However, an area effect that deals enough damage to break the case also damages the creature inside. The satchel is made of leather (Hardness 4, HP 16, BT 8). A creature can enter or exit the satchel by using a total of 2 actions: an Interact action to open the satchel and a single action with the move trait to enter or exit.</p>"
        },
        "equipped": {
            "value": false
        },
        "equippedBulk": {
            "value": ""
        },
        "hardness": {
            "value": 0
        },
        "hp": {
            "value": 0
        },
        "identification": {
            "misidentified": {},
            "status": "identified",
            "unidentified": {
                "data": {
                    "description": {
                        "value": ""
                    }
                },
                "img": "",
                "name": ""
            }
        },
        "invested": {
            "value": false
        },
        "level": {
            "value": 0
        },
        "maxHp": {
            "value": 0
        },
        "negateBulk": {
            "value": "0"
        },
        "preciousMaterial": {
            "value": ""
        },
        "preciousMaterialGrade": {
            "value": ""
        },
        "price": {
            "value": "5 gp"
        },
        "quantity": {
            "value": 1
        },
        "rules": [],
        "size": {
            "value": "med"
        },
        "source": {
            "value": "Pathfinder Lost Omens: Pathfinder Society Guide"
        },
        "stackGroup": {
            "value": ""
        },
        "traits": {
            "custom": "",
            "rarity": {
                "value": "uncommon"
            },
            "value": []
        },
        "usage": {
            "value": "worn"
        },
        "weight": {
            "value": "1"
        }
    },
    "effects": [],
    "flags": {},
    "img": "systems/pf2e/icons/equipment/adventuring-gear/familiar-satchel.webp",
    "name": "Familiar Satchel",
    "type": "equipment"
}
