{
    "_id": "M1fRjN7E3P55zvmc",
    "data": {
        "baseItem": null,
        "brokenThreshold": {
            "value": 0
        },
        "bulkCapacity": {
            "value": ""
        },
        "collapsed": {
            "value": false
        },
        "containerId": {
            "value": ""
        },
        "description": {
            "value": "<p>An <em>inspiring spotlight</em> is a bulky contraption consisting of a drum-shaped metal housing around several reflective metal plates. Two handles on either side, each with a small button, allow you to aim the spotlight outward from your body.</p>\n<p><strong>Activate</strong> <span class=\"pf2-icon\">A</span> Interact</p>\n<p><strong>Frequency</strong> Once per hour</p>\n<p><strong>Effect</strong> When you push the left-hand button, the <em>inspiring spotlight</em> emits a beam of bright magical light in a 120-foot line that hangs in the air and remains in place even if you move the spotlight. If the line passes through an area of magical darkness or targets a creature affected by magical darkness, the <em>inspiring spotlight</em> attempts to counteract the darkness.</p>\n<p>Creatures within the line gain a +1 item bonus to saving throws and Charisma-based skill checks. In addition, creatures in the line who are frightened reduce the value of their frightened condition by 1 at the beginning of each turn they start in the area of the line.</p>\n<p>The beam remains in place for 1 minute or until you push the right-hand button with another Interact action to extinguish the light.</p>\n<p>@Compendium[pf2e.equipment-effects.Effect: Inspiring Spotlight]{Effect: Inspiring Spotlight}</p>"
        },
        "equipped": {
            "value": false
        },
        "equippedBulk": {
            "value": ""
        },
        "hardness": {
            "value": 0
        },
        "hp": {
            "value": 0
        },
        "identification": {
            "misidentified": {},
            "status": "identified",
            "unidentified": {
                "data": {
                    "description": {
                        "value": ""
                    }
                },
                "img": "",
                "name": ""
            }
        },
        "invested": {
            "value": false
        },
        "level": {
            "value": 9
        },
        "maxHp": {
            "value": 0
        },
        "negateBulk": {
            "value": ""
        },
        "preciousMaterial": {
            "value": ""
        },
        "preciousMaterialGrade": {
            "value": ""
        },
        "price": {
            "value": "650 gp"
        },
        "quantity": {
            "value": 1
        },
        "rules": [],
        "size": {
            "value": "med"
        },
        "source": {
            "value": "Pathfinder #152: Legacy of the Lost God"
        },
        "stackGroup": {
            "value": ""
        },
        "traits": {
            "custom": "",
            "rarity": {
                "value": "uncommon"
            },
            "value": [
                "enchantment",
                "light",
                "magical"
            ]
        },
        "usage": {
            "value": "held-in-two-hands"
        },
        "weight": {
            "value": "3"
        }
    },
    "effects": [],
    "flags": {},
    "img": "systems/pf2e/icons/equipment/held-items/inspiring-spotlight.webp",
    "name": "Inspiring Spotlight",
    "type": "equipment"
}
