{
    "_id": "lSwITRpBSdodhc1c",
    "data": {
        "MAP": {
            "value": ""
        },
        "baseItem": "fighting-fan",
        "bonus": {
            "value": 0
        },
        "bonusDamage": {
            "value": 0
        },
        "brokenThreshold": {
            "value": 0
        },
        "bulkCapacity": {
            "value": ""
        },
        "category": "martial",
        "collapsed": {
            "value": false
        },
        "containerId": {
            "value": ""
        },
        "damage": {
            "damageType": "slashing",
            "dice": 1,
            "die": "d4",
            "value": ""
        },
        "description": {
            "value": "<p>This fan is useful for elegant dances as well as for slicing unsuspecting foes with the blades along its outer edge. If used in performances, it might be disguised as a frilly accessory, or it might be an obvious, though elegant, weapon.</p>\n<p>This elegant +3 greater striking flaming silver fighting fan features sharp silver feathers instead of traditional paper leaves in its design.</p>\n<hr />\n<p><strong>Activate <span class=\"pf2-icon\">3</span></strong> command, envision, Interact</p>\n<p><strong>Frequency</strong> once per day.</p>\n<p><strong>Effect</strong> You call upon the fan's extradimensional powers to trap a creature in Hao Jin's repository, a small demiplane that holds the countless relics Hao Jin collected over her lifetime (though a trapped creature cannot interact with any of these relics). The fighting fan casts <em>@Compendium[pf2e.spells-srd.Maze]{Maze}</em> on a creature within 30 feet. The fan automatically Sustains the Spell as long as you Strike a creature with it each round. The <span data-pf2-check=\"survival\" data-pf2-traits=\"conjuration,extradimensional,teleportation\" data-pf2-label=\"Phoenix Fighting Fan DC\" data-pf2-dc=\"34\" data-pf2-show-dc=\"owner\">Survival</span> or <span data-pf2-check=\"perception\" data-pf2-traits=\"conjuration,extradimensional,teleportation\" data-pf2-label=\"Phoenix Fighting Fan DC\" data-pf2-dc=\"34\" data-pf2-show-dc=\"owner\">Perception</span> DC to escape the demiplane is 34. The spell ends once the creature escapes, you fail to Strike a creature with the fan during a round, or after 1 minute, whichever comes first.</p>\n<hr />\n<p><strong>Activate</strong> 10 minutes (envision, Interact)</p>\n<p><strong>Effect</strong> The fan casts 8th-level <em>@Compendium[pf2e.spells-srd.Raise Dead]{Raise Dead}</em>, consuming the phoenix fighting fan in the process.</p>"
        },
        "equipped": {
            "value": false
        },
        "equippedBulk": {
            "value": ""
        },
        "group": "knife",
        "hands": {
            "value": ""
        },
        "hardness": {
            "value": 0
        },
        "hp": {
            "value": 0
        },
        "identification": {
            "misidentified": {},
            "status": "identified",
            "unidentified": {
                "data": {
                    "description": {
                        "value": ""
                    }
                },
                "img": "",
                "name": ""
            }
        },
        "invested": {
            "value": false
        },
        "level": {
            "value": 20
        },
        "maxHp": {
            "value": 0
        },
        "negateBulk": {
            "value": "0"
        },
        "potencyRune": {
            "value": 3
        },
        "preciousMaterial": {
            "value": "silver"
        },
        "preciousMaterialGrade": {
            "value": "high"
        },
        "price": {
            "value": "0 gp"
        },
        "property1": {
            "critDamage": "",
            "critDamageType": "",
            "critDice": null,
            "critDie": "",
            "criticalConditionType": "",
            "criticalConditionValue": null,
            "damageType": "",
            "dice": null,
            "die": "",
            "strikeConditionType": "",
            "strikeConditionValue": null,
            "value": ""
        },
        "propertyRune1": {
            "value": "flaming"
        },
        "propertyRune2": {
            "value": null
        },
        "propertyRune3": {
            "value": null
        },
        "propertyRune4": {
            "value": null
        },
        "quantity": {
            "value": 1
        },
        "range": null,
        "reload": {
            "value": ""
        },
        "rules": [],
        "size": {
            "value": "med"
        },
        "source": {
            "value": "Pathfinder #166: Despair on Danger Island"
        },
        "specific": {
            "material": {
                "grade": "high",
                "type": "silver"
            },
            "runes": {
                "potency": 3,
                "striking": "greaterStriking"
            },
            "value": true
        },
        "splashDamage": {
            "value": null
        },
        "stackGroup": {
            "value": ""
        },
        "strikingRune": {
            "value": "greaterStriking"
        },
        "traits": {
            "custom": "",
            "rarity": {
                "value": "rare"
            },
            "value": [
                "agile",
                "artifact",
                "backstabber",
                "conjuration",
                "deadly-d6",
                "finesse",
                "magical",
                "monk"
            ]
        },
        "usage": {
            "value": "held-in-one-hand"
        },
        "weight": {
            "value": "L"
        }
    },
    "effects": [],
    "flags": {},
    "img": "systems/pf2e/icons/equipment/weapons/fighting-fan.webp",
    "name": "Phoenix Fighting Fan",
    "type": "weapon"
}
