{
    "_id": "VKHKaCMRF30GWvZ0",
    "data": {
        "baseItem": null,
        "brokenThreshold": {
            "value": 0
        },
        "bulkCapacity": {
            "value": ""
        },
        "collapsed": {
            "value": false
        },
        "containerId": {
            "value": null
        },
        "description": {
            "value": "<p>This set of chains is completely covered with spikes and sharp blades. Not balanced for weapon use, twining chains are instead wrapped around a user's body as a deterrent to attackers-and, for some, a fashion statement. While wearing twining chains, you gain the Thorns reaction. In addition to their dangers, twining chains' weight also increases your armor's Bulk by 1, Strength entry value by 2, and check penalty by 2.</p>\n<hr />\n<p><strong>Thorns</strong> <span class=\"pf2-icon\">r</span></p>\n<p><strong>Trigger</strong> You are hit by an unarmed attack;</p>\n<p><strong>Effect</strong> You twist to harm your attacker with your chains' spikes and blades. Make an attack roll against the triggering attacker using your unarmed attack modifier. On a hit, the attacking creature takes [[/r {1d6}[piercing]]]{1d6 piercing damage}. This damage increases to [[/r {2d6}[piercing]]]{2d6 piercing damage} if the armor has a +1 potency rune, [[/r {3d6}[piercing]]]{3d6 piercing damage} if the armor has a +2 potency rune, or [[/r {4d6}[piercing]]]{4d6 piercing damage} if the armor has a +3 potency rune. However, whether you hit or miss, you take piercing damage equal to the number of d6s of piercing damage you would deal your attacker.</p>"
        },
        "equipped": {
            "value": false
        },
        "equippedBulk": {
            "value": ""
        },
        "hardness": {
            "value": 0
        },
        "hp": {
            "value": 0
        },
        "identification": {
            "misidentified": {},
            "status": "identified",
            "unidentified": {
                "data": {
                    "description": {
                        "value": ""
                    }
                },
                "img": "",
                "name": ""
            }
        },
        "invested": {
            "value": null
        },
        "level": {
            "value": 1
        },
        "maxHp": {
            "value": 0
        },
        "negateBulk": {
            "value": "0"
        },
        "preciousMaterial": {
            "value": null
        },
        "preciousMaterialGrade": {
            "value": null
        },
        "price": {
            "value": "5 gp"
        },
        "quantity": {
            "value": 1
        },
        "rules": [],
        "size": {
            "value": "med"
        },
        "source": {
            "value": "Pathfinder Lost Omens: The Grand Bazaar"
        },
        "stackGroup": {
            "value": ""
        },
        "traits": {
            "custom": "",
            "rarity": {
                "value": "uncommon"
            },
            "value": [
                "adjustment"
            ]
        },
        "usage": {
            "value": "applied-to-armor"
        },
        "weight": {
            "value": "1"
        }
    },
    "effects": [],
    "flags": {},
    "img": "systems/pf2e/icons/default-icons/equipment.svg",
    "name": "Twining Chains",
    "type": "equipment"
}
