{
    "_id": "pxiSbjfWaKCG1xLD",
    "data": {
        "actionCategory": {
            "value": "offensive"
        },
        "actionType": {
            "value": "passive"
        },
        "actions": {
            "value": null
        },
        "description": {
            "value": "<p>The graveknight died after being deeply betrayed.</p>\n<p>Instead of being immune to a type of energy damage, it is immune to mental damage, its weapons deal [[/r {1d6}[mental]]]{1d6 additional mental damage}, and its Devastating Blast deals mental damage with a Will saving throw instead of Reflex.</p>"
        },
        "requirements": {
            "value": ""
        },
        "rules": [],
        "source": {
            "value": "Pathfinder Bestiary"
        },
        "traits": {
            "custom": "",
            "rarity": {
                "value": "common"
            },
            "value": []
        },
        "trigger": {
            "value": ""
        },
        "weapon": {
            "value": ""
        }
    },
    "effects": [],
    "flags": {},
    "img": "systems/pf2e/icons/actions/Passive.webp",
    "name": "(Graveknight) Betrayed Revivification",
    "type": "action"
}
