{
    "_id": "99BxUbTtFlyPWkq5",
    "content": "<table class=\"pf2-table\">\n<thead>\n<tr>\n<th>\n<h3><strong>Name</strong></h3>\n</th>\n<th>\n<h3><strong>Crit Effect</strong></h3>\n</th>\n<th>\n<h3><strong>Type</strong></h3>\n</th>\n</tr>\n</thead>\n<tbody>\n<tr>\n<td>Vibration</td>\n<td>If you're using a bludgeoning weapon, you drop that weapon and become enfeebled 2 until healed.</td>\n<td>\n<h3>Melee</h3>\n</td>\n</tr>\n<tr>\n<td>Recoil</td>\n<td>You are pushed 5 feet backwards and fall prone.</td>\n<td>\n<h3>Ranged</h3>\n</td>\n</tr>\n<tr>\n<td>Punctured Foot</td>\n<td>You take 1d4 persistent bleed damage. Until this effect ends, you take a -10-foot circumstance penalty to your land Speed.</td>\n<td>\n<h3>Unarmed</h3>\n</td>\n</tr>\n<tr>\n<td>Mental Backlash</td>\n<td>Until healed, you are stupefied 3.</td>\n<td>\n<h3>Spell</h3>\n</td>\n</tr>\n</tbody>\n</table>\n<h3 style=\"text-align: left;\"> </h3>",
    "flags": {},
    "name": "Critical Fumble Deck #7",
    "permission": {
        "default": 0
    }
}
