{
    "_id": "gWa7wGUfUvYoIK8z",
    "content": "<table class=\"pf2-table\">\n<thead>\n<tr>\n<th>\n<h3><strong>Name</strong></h3>\n</th>\n<th>\n<h3><strong>Crit Effect</strong></h3>\n</th>\n<th>\n<h3><strong>Type</strong></h3>\n</th>\n</tr>\n</thead>\n<tbody>\n<tr>\n<td>This sword is Heavy</td>\n<td>You are fatigued.</td>\n<td>\n<h3>Melee</h3>\n</td>\n</tr>\n<tr>\n<td>Errant Aim</td>\n<td>Reroll the attack roll, targeting the creature closest to the target (excluding yourself).</td>\n<td>\n<h3>Ranged</h3>\n</td>\n</tr>\n<tr>\n<td>Awkward Attack</td>\n<td>You are flat-footed until the end of your next turn.</td>\n<td>\n<h3>Unarmed</h3>\n</td>\n</tr>\n<tr>\n<td>Bleeding Eyes</td>\n<td>You take 1d6 persistent bleed damage.</td>\n<td>\n<h3>Spell</h3>\n</td>\n</tr>\n</tbody>\n</table>\n<h3 style=\"text-align: left;\"> </h3>",
    "flags": {},
    "name": "Critical Fumble Deck #20",
    "permission": {
        "default": 0
    }
}
