{
    "_id": "ZynnoQJFz12FD0Xn",
    "content": "<h1>Wards of the Pharaoh [NG]</h1><p><strong>Edicts</strong> Use magic to defend yourself and your allies, maintain magical wards, seek greater magical knowledge</p><p><strong>Anathema</strong> Destroy wards that are actively protecting innocents, refuse to use your magic to help those in need who ask you</p><p><strong>Areas of Concern</strong> Abjuration magic, protection, self-improvement</p><p><strong>Follower Alignments</strong> NG, CG, LN, N</p><p><strong>Pantheon Members&nbsp;</strong></span><strong> </strong>Isis, Nethys, Selket, Thoth</p><h2>Devotee Benefits</h2><div><strong>Divine Ability </strong>Constitution or Intelligence</div><div><strong>Divine Font </strong><em>harm</em> or <em>heal</em></div><div><strong>Divine Skill </strong>Medicine</div><div><strong>Favored Weapon </strong>staff</div><div><strong>Domains </strong>family, knowledge, magic, protection</div><div><strong>Alternate Domains </strong>glyph, healing</div><div><strong>Cleric Spells 1st: </strong><em>soothe</em><strong>, 4th: </strong><em>resilient sphere</em><strong>, 9th: </strong><em>disjunction</em></div>",
    "flags": {},
    "name": "Wards of the Pharaoh",
    "permission": {
        "default": 0
    }
}
