{
    "_id": "HBZSP3ABqmsV9FXH",
    "data": {
        "actionCategory": {
            "value": ""
        },
        "actionType": {
            "value": "passive"
        },
        "actions": {
            "value": null
        },
        "description": {
            "value": "<p>You've dedicated your training to the most complex and weird weapons of your favorite group. Choose firearms or crossbows. You gain proficiency with all advanced firearms as if they were martial firearms or with all advanced crossbows as if they were martial crossbows.</p>"
        },
        "featType": {
            "value": "class"
        },
        "level": {
            "value": 6
        },
        "location": "",
        "prerequisites": {
            "value": []
        },
        "rules": [],
        "source": {
            "value": ""
        },
        "traits": {
            "custom": "",
            "rarity": {
                "value": "common"
            },
            "value": [
                "gunslinger"
            ]
        }
    },
    "effects": [],
    "flags": {},
    "img": "systems/pf2e/icons/default-icons/feats.webp",
    "name": "Advanced Shooter",
    "type": "feat"
}
