{
    "_id": "ngNzsvIpnj1iLfSC",
    "data": {
        "actionCategory": {
            "value": ""
        },
        "actionType": {
            "value": "passive"
        },
        "actions": {
            "value": null
        },
        "description": {
            "value": "<p>The magic in your blood is unpredictable. When you make your daily preparations, roll [[/r 1d12]] twice and consult the following list:</p>\n<ol>\n<li><em>@Compendium[pf2e.spells-srd.Acid Arrow]{Acid Arrow}</em>;</li>\n<li><em>@Compendium[pf2e.spells-srd.Blur]{Blur}</em>;</li>\n<li><em>@Compendium[pf2e.spells-srd.Hideous Laughter]{Hideous Laughter}</em>;</li>\n<li><em>@Compendium[pf2e.spells-srd.Humanoid Form]{Humanoid Form}</em>;</li>\n<li><em>@Compendium[pf2e.spells-srd.Illusory Object]{Illusory Object}</em>;</li>\n<li><em>@Compendium[pf2e.spells-srd.Mirror Image]{Mirror Image}</em>;</li>\n<li><em>@Compendium[pf2e.spells-srd.Resist Energy]{Resist Energy}</em>;</li>\n<li><em>@Compendium[pf2e.spells-srd.See Invisibility]{See Invisibility}</em>;</li>\n<li><em>@Compendium[pf2e.spells-srd.Shatter]{Shatter}</em>;</li>\n<li><em>@Compendium[pf2e.spells-srd.Sound Burst]{Sound Burst}</em>;</li>\n<li><em>@Compendium[pf2e.spells-srd.Spider Climb]{Spider Climb}</em>;</li>\n<li><em>@Compendium[pf2e.spells-srd.Telekinetic Maneuver]{Telekinetic Maneuver}</em>.</li>\n</ol>\n<p>You can cast each of those two spells once during the following day (or one spell twice if you rolled doubles) as 2nd-level divine innate spells.</p>"
        },
        "featType": {
            "value": "ancestry"
        },
        "level": {
            "value": 9
        },
        "location": "",
        "prerequisites": {
            "value": []
        },
        "rules": [],
        "source": {
            "value": "Pathfinder Lost Omens: Ancestry Guide"
        },
        "traits": {
            "custom": "",
            "rarity": {
                "value": "common"
            },
            "value": [
                "ganzi"
            ]
        }
    },
    "effects": [],
    "flags": {},
    "img": "systems/pf2e/icons/features/feats/feats.webp",
    "name": "Anarchic Arcana",
    "type": "feat"
}
