{
    "_id": "YG6OCTbbqZwqRTr3",
    "data": {
        "actionCategory": {
            "value": ""
        },
        "actionType": {
            "value": "passive"
        },
        "actions": {
            "value": null
        },
        "description": {
            "value": "<p>Your eye has been magically enhanced to pierce darkness. You gain darkvision.</p>\n<p><strong>Enhancement</strong> Your eye can see @Compendium[pf2e.conditionitems.Invisible]{Invisible} creatures in brief spurts. You can cast see invisibility as an arcane innate spell once per hour.</p>"
        },
        "featType": {
            "value": "ancestry"
        },
        "level": {
            "value": 1
        },
        "location": "",
        "prerequisites": {
            "value": [
                {
                    "value": "low-light vision"
                }
            ]
        },
        "rules": [
            {
                "key": "Sense",
                "label": "PF2E.SensesDarkvision",
                "selector": "darkvision"
            }
        ],
        "source": {
            "value": ""
        },
        "traits": {
            "custom": "",
            "rarity": {
                "value": "common"
            },
            "value": [
                "automaton"
            ]
        }
    },
    "effects": [],
    "flags": {},
    "img": "systems/pf2e/icons/default-icons/feats.webp",
    "name": "Arcane Eye",
    "type": "feat"
}
