{
    "_id": "GTA6QM7cH40L8H5Q",
    "data": {
        "actionCategory": {
            "value": ""
        },
        "actionType": {
            "value": "passive"
        },
        "actions": {
            "value": null
        },
        "description": {
            "value": "<p>You can disguise yourself with magical illusions. You can cast <em>@Compendium[pf2e.spells-srd.Illusory Disguise]{Illusory Disguise}</em> once per day as a 1st-level primal innate spell. At 7th level, the spell is heightened to 2nd level, and every 2 levels thereafter, the spell is heightened an additional spell level.</p>"
        },
        "featType": {
            "value": "ancestry"
        },
        "level": {
            "value": 5
        },
        "location": "",
        "prerequisites": {
            "value": []
        },
        "rules": [],
        "source": {
            "value": "Pathfinder Lost Omens: Ancestry Guide"
        },
        "traits": {
            "custom": "",
            "rarity": {
                "value": "common"
            },
            "value": [
                "sprite"
            ]
        }
    },
    "effects": [],
    "flags": {},
    "img": "systems/pf2e/icons/features/feats/feats.webp",
    "name": "Fey Disguise",
    "type": "feat"
}
