{
    "_id": "mNsNl6w3l5rXx8dL",
    "data": {
        "actionCategory": {
            "value": ""
        },
        "actionType": {
            "value": "passive"
        },
        "actions": {
            "value": null
        },
        "description": {
            "value": "<p><strong>Archetype</strong> @Compendium[pf2e.archetypes.Juggler]{Juggler}</p>\n<hr />\n<p>You become trained in Performance; if you were already trained in Performance, you instead become trained in a skill of your choice. You also gain the @Compendium[pf2e.feats-srd.Juggle]{Juggle} skill feat, even if you don't meet its prerequisites.</p>\n<p><strong>Special</strong> You cannot select another dedication feat until you have gained one other feat from the juggler archetype.</p>"
        },
        "featType": {
            "value": "archetype"
        },
        "level": {
            "value": 2
        },
        "location": "",
        "prerequisites": {
            "value": [
                {
                    "value": "Dexterity 14"
                }
            ]
        },
        "rules": [
            {
                "key": "ActiveEffectLike",
                "mode": "upgrade",
                "path": "data.skills.prf.rank",
                "value": 1
            }
        ],
        "source": {
            "value": "Pathfinder #151: The Show Must Go On"
        },
        "traits": {
            "custom": "",
            "rarity": {
                "value": "uncommon"
            },
            "value": [
                "archetype",
                "dedication"
            ]
        }
    },
    "effects": [],
    "flags": {},
    "img": "systems/pf2e/icons/features/feats/feats.webp",
    "name": "Juggler Dedication",
    "type": "feat"
}
