{
    "_id": "HKGyFj2w5dzkf3SW",
    "data": {
        "actionCategory": {
            "value": ""
        },
        "actionType": {
            "value": "passive"
        },
        "actions": {
            "value": null
        },
        "description": {
            "value": "<p>By drawing upon the First World's magic, you can siphon a portion of that malleable world to create a convincing illusion. Once per day, you can cast <em>@Compendium[pf2e.spells-srd.Illusory Disguise]{Illusory Disguise}</em>, <em>@Compendium[pf2e.spells-srd.Item Facade]{Item Facade}</em>, or <em>@Compendium[pf2e.spells-srd.Ventriloquism]{Ventriloquism}</em>. At 7th level, the spell is heightened to 2nd level, and every 2 levels thereafter, the spell is heightened an additional spell level.</p>"
        },
        "featType": {
            "value": "ancestry"
        },
        "level": {
            "value": 5
        },
        "prerequisites": {
            "value": [
                {
                    "value": "Illusion Sense"
                }
            ]
        },
        "rules": [],
        "source": {
            "value": "Pathfinder Lost Omens: Character Guide"
        },
        "traits": {
            "custom": "",
            "rarity": {
                "value": "common"
            },
            "value": [
                "gnome"
            ]
        }
    },
    "effects": [],
    "flags": {},
    "img": "systems/pf2e/icons/features/feats/feats.webp",
    "name": "Natural Illusionist",
    "type": "feat"
}
