{
    "_id": "o1LhDmwymrpEy1u2",
    "data": {
        "actionCategory": {
            "value": ""
        },
        "actionType": {
            "value": "reaction"
        },
        "actions": {
            "value": null
        },
        "description": {
            "value": "<p><strong>Requirements</strong> You are within 10 feet of water at least 10 feet deep, and your Speed is sufficient to reach the water in one Stride.</p>\n<p><strong>Trigger</strong> You successfully @Compendium[pf2e.actionspf2e.Grapple]{Grapple} a creature of the same size as you or smaller.</p>\n<hr />\n<p>You Stride up to 10 feet to enter the water, bringing the @Compendium[pf2e.conditionitems.Grabbed]{Grabbed} creature with you into the water.</p>"
        },
        "featType": {
            "value": "ancestry"
        },
        "level": {
            "value": 9
        },
        "location": "",
        "prerequisites": {
            "value": [
                {
                    "value": "Drag Down"
                },
                {
                    "value": "expert in Athletics"
                }
            ]
        },
        "rules": [],
        "source": {
            "value": "Azarketi Ancestry Web Supplement"
        },
        "traits": {
            "custom": "",
            "rarity": {
                "value": "common"
            },
            "value": [
                "azarketi"
            ]
        }
    },
    "effects": [],
    "flags": {},
    "img": "systems/pf2e/icons/default-icons/feats.webp",
    "name": "Riptide",
    "type": "feat"
}
