{
    "_id": "L9sRaFl0tHT5AFIQ",
    "data": {
        "actionCategory": {
            "value": "offensive"
        },
        "actionType": {
            "value": "action"
        },
        "actions": {
            "value": 2
        },
        "description": {
            "value": "<p><strong>Requirements</strong> You're wielding a loaded firearm that has the scatter trait.</p>\n<hr />\n<p>You pack your weapon with additional shot and powder, creating a risky but devastating wave of destruction. Make a ranged Strike with the firearm. The firearm's range increment increases by 20 feet and the radius of its scatter increases by 20 feet. The Strike gains the following failure conditions.</p>\n<p><strong>Failure</strong> The firearm misfires, but it doesn't cause the other critical failure effects listed below.</p>\n<p><strong>Critical Failure</strong> The firearm misfires and also explodes. It becomes broken, and it deals its normal weapon damage to all creatures in a <span data-pf2-effect-area=\"burst\" data-pf2-distance=\"20\">20-foot burst</span> centered on the firearm, with a basic Reflex save against your class DC. This damage includes any from the weapon's fundamental and property runes.</p>"
        },
        "featType": {
            "value": "class"
        },
        "level": {
            "value": 6
        },
        "location": "",
        "prerequisites": {
            "value": []
        },
        "rules": [],
        "source": {
            "value": ""
        },
        "traits": {
            "custom": "",
            "rarity": {
                "value": "common"
            },
            "value": [
                "gunslinger"
            ]
        }
    },
    "effects": [],
    "flags": {},
    "img": "systems/pf2e/icons/default-icons/feats.webp",
    "name": "Scatter Blast",
    "type": "feat"
}
