{
    "_id": "kDklfrprKTuTpcEE",
    "data": {
        "actionCategory": {
            "value": ""
        },
        "actionType": {
            "value": "passive"
        },
        "actions": {
            "value": null
        },
        "description": {
            "value": "<p>It's difficult to notice your passage through wild areas. As long as you're not in an urban environment, you're always considered to be @Compendium[pf2e.actionspf2e.Cover Tracks]{Covering Tracks}, even if you chose a different activity in exploration mode.</p>"
        },
        "featType": {
            "value": "ancestry"
        },
        "level": {
            "value": 1
        },
        "prerequisites": {
            "value": []
        },
        "rules": [],
        "source": {
            "value": "Pathfinder Lost Omens: Character Guide"
        },
        "traits": {
            "custom": "",
            "rarity": {
                "value": "common"
            },
            "value": [
                "leshy"
            ]
        }
    },
    "effects": [],
    "flags": {},
    "img": "systems/pf2e/icons/features/feats/feats.webp",
    "name": "Shadow of the Wilds",
    "type": "feat"
}
