{
    "_id": "Oa41bfBRO36lf1aE",
    "data": {
        "actionCategory": {
            "value": ""
        },
        "actionType": {
            "value": "reaction"
        },
        "actions": {
            "value": null
        },
        "description": {
            "value": "<p><strong>Trigger</strong> An enemy critically succeeds at a Strike against an adjacent ally.</p>\n<hr />\n<p>You've trained to protect your allies by diverting the worst attacks to yourself. The enemy doesn't double the damage from the triggering Strike but instead applies the normal damage to both you and your ally. Both of you take any effects that would happen on a hit that dealt damage, such as poison, but neither of you are subject to any effects that would happen only on a critical success.</p>"
        },
        "featType": {
            "value": "archetype"
        },
        "level": {
            "value": 12
        },
        "prerequisites": {
            "value": [
                {
                    "value": "Swordmaster Dedication"
                }
            ]
        },
        "rules": [],
        "source": {
            "value": "Pathfinder Lost Omens: Character Guide"
        },
        "traits": {
            "custom": "",
            "rarity": {
                "value": "common"
            },
            "value": [
                "archetype"
            ]
        }
    },
    "effects": [],
    "flags": {},
    "img": "systems/pf2e/icons/features/feats/feats.webp",
    "name": "Shoulder Catastrophe",
    "type": "feat"
}
