{
    "_id": "oA866uVEFu1OrAX0",
    "data": {
        "actionCategory": {
            "value": ""
        },
        "actionType": {
            "value": "passive"
        },
        "actions": {
            "value": null
        },
        "description": {
            "value": "<p>You have an intuitive sense that alerts you to the dangers and presence of traps. You gain a +1 circumstance bonus to Perception checks to find traps, to AC against attacks made by traps, and to saves against traps. Even if you aren't @Compendium[pf2e.actionspf2e.Search]{Searching}, you get a check to find traps that normally require you to be Searching. You still need to meet any other requirements to find the trap.</p>\n<p>You can disable traps that require a proficiency rank of master in Thievery. If you have master proficiency in Thievery, you can disable traps that require a proficiency rank of legendary instead, and your circumstance bonuses against traps increase to +2.</p>"
        },
        "featType": {
            "value": "class"
        },
        "level": {
            "value": 1
        },
        "location": "",
        "prerequisites": {
            "value": []
        },
        "rules": [
            {
                "key": "ToggleProperty",
                "label": "Trap Finder (detecting or defending against traps)",
                "property": "flags.pf2e.rollOptions.all.trap-finder"
            },
            {
                "key": "FlatModifier",
                "label": "Trap Finder (to find traps)",
                "predicate": {
                    "all": [
                        "trap-finder"
                    ]
                },
                "selector": "perception",
                "type": "circumstance",
                "value": {
                    "brackets": [
                        {
                            "end": 2,
                            "start": 1,
                            "value": 1
                        },
                        {
                            "end": 4,
                            "start": 3,
                            "value": 2
                        }
                    ],
                    "field": "actor|data.skills.thi.rank"
                }
            },
            {
                "key": "FlatModifier",
                "label": "Trap Finder (against traps)",
                "predicate": {
                    "all": [
                        "trap-finder"
                    ]
                },
                "selector": "ac",
                "type": "circumstance",
                "value": {
                    "brackets": [
                        {
                            "end": 2,
                            "start": 1,
                            "value": 1
                        },
                        {
                            "end": 4,
                            "start": 3,
                            "value": 2
                        }
                    ],
                    "field": "actor|data.skills.thi.rank"
                }
            },
            {
                "key": "FlatModifier",
                "label": "Trap Finder (against traps)",
                "predicate": {
                    "all": [
                        "trap-finder"
                    ]
                },
                "selector": "saving-throw",
                "type": "circumstance",
                "value": {
                    "brackets": [
                        {
                            "end": 2,
                            "start": 1,
                            "value": 1
                        },
                        {
                            "end": 4,
                            "start": 3,
                            "value": 2
                        }
                    ],
                    "field": "actor|data.skills.thi.rank"
                }
            }
        ],
        "source": {
            "value": "Pathfinder Advanced Player's Guide"
        },
        "traits": {
            "custom": "",
            "rarity": {
                "value": "common"
            },
            "value": [
                "investigator",
                "rogue"
            ]
        }
    },
    "effects": [],
    "flags": {},
    "img": "systems/pf2e/icons/features/feats/feats.webp",
    "name": "Trap Finder",
    "type": "feat"
}
