{
    "_id": "0o984LjzIFXxeXIF",
    "data": {
        "description": {
            "value": "<p>You flood your eidolon with power, creating a temporary evolution in your eidolon's capabilities. Choose one of the following effects:</p>\n<ul>\n<li>Your eidolon can breathe underwater and gains a swim Speed equal to its land Speed or 30 feet, whichever is less. Alternatively, if your eidolon is normally aquatic, it can breathe air and gains a land Speed equal to its swim Speed or 30 feet, whichever is less. Either way, it gains the amphibious trait.</li>\n</ul>"
        },
        "duration": {
            "expiry": "turn-start",
            "sustained": false,
            "unit": "unlimited",
            "value": -1
        },
        "level": {
            "value": 1
        },
        "rules": [
            {
                "add": [
                    "amphibious"
                ],
                "key": "ActorTraits"
            }
        ],
        "source": {
            "value": "Pathfinder Secrets of Magic"
        },
        "start": {
            "initiative": null,
            "value": 0
        },
        "target": null,
        "tokenIcon": {
            "show": true
        },
        "traits": {
            "custom": "",
            "rarity": {
                "value": "common"
            },
            "value": []
        }
    },
    "effects": [],
    "flags": {},
    "img": "systems/pf2e/icons/default-icons/effect.svg",
    "name": "Spell Effect: Evolution Surge (Amphibious)",
    "type": "effect"
}
