{
    "_id": "TDaMnCtZ72uyYrz8",
    "data": {
        "ability": {
            "value": ""
        },
        "area": {
            "areaType": "",
            "value": ""
        },
        "autoHeightenLevel": {
            "value": null
        },
        "category": {
            "value": "spell"
        },
        "components": {
            "focus": false,
            "material": false,
            "somatic": true,
            "verbal": true
        },
        "cost": {
            "value": ""
        },
        "damage": {
            "value": {
                "0": {
                    "applyMod": false,
                    "type": {
                        "categories": [],
                        "subtype": "",
                        "value": "force"
                    },
                    "value": "2d8"
                }
            }
        },
        "description": {
            "value": "<p>You propel yourself through the fabric of space to deal a blow carrying the momentum of your teleportation. You teleport to an empty space adjacent to a creature you can see within range, then make a Strike against the creature with a weapon you're wielding. The Strike deals damage, plus an extra 2d8 force damage, depending on the result of your Strike.</p>\n<hr />\n<p><strong>Critical Success</strong> Double damage, plus after the Strike, you can teleport the target into an empty space up to 5 feet away from its current position. The new space must be on the ground if it started on the ground, in the air if it was flying, and so on.</p>\n<p><strong>Success</strong> The Strike deals full damage.</p>\n<p><strong>Failure</strong> The Strike deals no damage, but the target takes [[/r {1d8}[force]]]{1d8 force damage}.</p>\n<p><strong>Critical Failure</strong> The Strike deals no damage, and you take 1d8 force damage.</p>\n<hr />\n<p><strong>Heightened (+2)</strong> The spell's range increases by 60 feet, and any force damage the spell deals is increased by [[/r {1d8}[force]]].</p>"
        },
        "duration": {
            "value": ""
        },
        "hasCounteractCheck": {
            "value": false
        },
        "level": {
            "value": 5
        },
        "location": {
            "value": ""
        },
        "materials": {
            "value": ""
        },
        "prepared": {
            "value": ""
        },
        "range": {
            "value": "60 feet"
        },
        "rules": [],
        "save": {
            "basic": "",
            "value": ""
        },
        "scaling": {
            "damage": {
                "0": "1d8"
            },
            "interval": 2
        },
        "school": {
            "value": "conjuration"
        },
        "source": {
            "value": "Pathfinder Secrets of Magic"
        },
        "spellType": {
            "value": "utility"
        },
        "sustained": {
            "value": false
        },
        "target": {
            "value": "1 creature"
        },
        "time": {
            "value": "2"
        },
        "traditions": {
            "custom": "",
            "value": [
                "arcane",
                "divine",
                "occult"
            ]
        },
        "traits": {
            "custom": "",
            "rarity": {
                "value": "common"
            },
            "value": [
                "force",
                "teleportation"
            ]
        }
    },
    "effects": [],
    "flags": {},
    "img": "systems/pf2e/icons/spells/blink-charge.webp",
    "name": "Blink Charge",
    "type": "spell"
}
