{
    "_id": "5c692cCcTDXjSEzk",
    "data": {
        "ability": {
            "value": ""
        },
        "area": {
            "areaType": "",
            "value": null
        },
        "areasize": {
            "value": ""
        },
        "category": {
            "value": "spell"
        },
        "components": {
            "material": false,
            "somatic": true,
            "verbal": true
        },
        "cost": {
            "value": ""
        },
        "damage": {
            "value": {}
        },
        "description": {
            "value": "<p>Calling upon powerful transformative magic, you gain a Large dragon battle form. You must have space to expand or the spell is lost. When you cast this spell, choose one type of chromatic or metallic dragon. While in this form, you gain the dragon trait. You have hands in this battle form and can take manipulate actions. You can Dismiss the spell.</p>\n<p>You gain the following statistics and abilities regardless of which battle form you choose:</p>\n<ul>\n<li>AC = 18 + your level. Ignore your armor's check penalty and Speed reduction.</li>\n<li>10 temporary Hit Points.</li>\n<li>Speed 40 feet, fly Speed 100 feet.</li>\n<li>Resistance 10 against the damage type of your breath weapon (see below).</li>\n<li>Darkvision and imprecise scent 60 feet.</li>\n<li>One or more unarmed melee attacks specific to the battle form you choose, which are the only attacks you can use. You're trained with them. Your attack modifier is +22, and your damage bonus is +6. These attacks are Strength based (for the purpose of the @Compendium[pf2e.conditionitems.Enfeebled]{Enfeebled} condition, for example). If your unarmed attack modifier is higher, you can use it instead. See below for more on these attacks.</li>\n<li>Athletics modifier of +23, unless your own modifier is higher.</li>\n<li><strong>Breath Weapon</strong> <span class=\"pf2-icon\">2</span> (arcane, evocation) The shape, damage, and damage type of your breath weapon depend on your specific dragon form (see below). A creature in the area attempts a basic save against your spell DC. This is a Reflex save unless stated otherwise in the special ability description for your specific dragon form. Once activated, your breath weapon can't be used again for [[/br 1d4 #rounds]]{1d4 rounds}. Your breath weapon has the trait corresponding to the type of damage it deals.</li>\n</ul>\n<p>You also gain specific abilities based on the type of dragon:</p>\n<ul>\n<li><strong>@Compendium[pf2e.spell-effects.Spell Effect: Dragon Form (Black)]{Black}</strong>\n<ul>\n<li>swim Speed 60 feet;</li>\n<li><strong>Melee</strong> <span class=\"pf2-icon\">1</span> jaws, <strong>Damage</strong> 2d12 piercing plus 2d6 acid;</li>\n<li><strong>Melee</strong> <span class=\"pf2-icon\">1</span> claw (agile), <strong>Damage</strong> 3d10 slashing;</li>\n<li><strong>Melee</strong> <span class=\"pf2-icon\">1</span> tail (reach 10 feet), <strong>Damage</strong> 3d10 bludgeoning;</li>\n<li><strong>Melee</strong> <span class=\"pf2-icon\">1</span> horns (reach 10 feet), <strong>Damage</strong> 3d8 piercing;</li>\n<li>breath weapon 60-foot line, [[/r {11d6}[acid]]]{11d6 acid}.</li>\n</ul>\n</li>\n<li><strong>@Compendium[pf2e.spell-effects.Spell Effect: Dragon Form (Blue)]{Blue}</strong>\n<ul>\n<li>burrow Speed 20 feet;</li>\n<li><strong>Melee</strong> <span class=\"pf2-icon\">1</span> jaws, <strong>Damage</strong> 2d10 piercing plus 1d12 electricity;</li>\n<li><strong>Melee</strong> <span class=\"pf2-icon\">1</span> claw (agile), <strong>Damage</strong> 3d10 slashing;</li>\n<li><strong>Melee</strong> <span class=\"pf2-icon\">1</span> tail (reach 10 feet), <strong>Damage</strong> 3d10 bludgeoning;</li>\n<li><strong>Melee</strong> <span class=\"pf2-icon\">1</span> horns (reach 10 feet), <strong>Damage</strong> 3d8 piercing;</li>\n<li>breath weapon 80-foot line, [[/r {6d12}[electricity]]]{6d12 electricity}.</li>\n</ul>\n</li>\n<li><strong>@Compendium[pf2e.spell-effects.Spell Effect: Dragon Form (Brass)]{Brass}</strong>\n<ul>\n<li>burrow Speed 20 feet;</li>\n<li><strong>Melee</strong> <span class=\"pf2-icon\">1</span> jaws, <strong>Damage</strong> 3d8 piercing plus 2d4 fire;</li>\n<li><strong>Melee</strong> <span class=\"pf2-icon\">1</span> claw (agile), 3d10 slashing;</li>\n<li><strong>Melee</strong> <span class=\"pf2-icon\">1</span> tail (reach 10 feet), <strong>Damage</strong> 3d10 bludgeoning;</li>\n<li><strong>Melee</strong> <span class=\"pf2-icon\">1</span> spikes (reach 10 feet), <strong>Damage</strong> 3d8 piercing;</li>\n<li>breath weapon 60-foot line, [[/r {15d4}[fire]]]{15d4 fire}.</li>\n</ul>\n</li>\n<li><strong>@Compendium[pf2e.spell-effects.Spell Effect: Dragon Form (Bronze)]{Bronze}</strong>\n<ul>\n<li>swim Speed 40 feet;</li>\n<li><strong>Melee</strong> <span class=\"pf2-icon\">1</span> jaws, <strong>Damage</strong> 2d10 piercing plus 1d12 electricity;</li>\n<li><strong>Melee</strong> <span class=\"pf2-icon\">1</span> claw (agile), <strong>Damage</strong> 3d10 slashing;</li>\n<li><strong>Melee</strong> <span class=\"pf2-icon\">1</span> tail (reach 10 feet), <strong>Damage</strong> 3d10 bludgeoning;</li>\n<li><strong>Melee</strong> <span class=\"pf2-icon\">1</span> wing (reach 10 feet), <strong>Damage</strong> 3d8 slashing;</li>\n<li>breath weapon 80-foot line, [[/r {6d12}[electricity]]]{6d12 electricity}.</li>\n</ul>\n</li>\n<li><strong>@Compendium[pf2e.spell-effects.Spell Effect: Dragon Form (Copper)]{Copper}</strong>\n<ul>\n<li>climb Speed 25 feet on stone only;</li>\n<li><strong>Melee</strong> <span class=\"pf2-icon\">1</span> jaws, <strong>Damage</strong> 2d12 piercing plus 2d6 acid;</li>\n<li><strong>Melee</strong> <span class=\"pf2-icon\">1</span> claw (agile), <strong>Damage</strong> 3d10 slashing;</li>\n<li><strong>Melee</strong> <span class=\"pf2-icon\">1</span> tail (reach 10 feet), <strong>Damage</strong> 3d10 bludgeoning;</li>\n<li><strong>Melee</strong> <span class=\"pf2-icon\">1</span> wing (reach 10 feet), <strong>Damage</strong> 3d8 bludgeoning;</li>\n<li>breath weapon 60-foot line, [[/r {10d6}[acid]]]{10d6 acid}.</li>\n</ul>\n</li>\n<li><strong>@Compendium[pf2e.spell-effects.Spell Effect: Dragon Form (Gold)]{Gold}</strong>\n<ul>\n<li>swim Speed 40 feet;</li>\n<li><strong>Melee</strong> <span class=\"pf2-icon\">1</span> jaws, <strong>Damage</strong> 2d12 piercing plus 2d6 fire;</li>\n<li><strong>Melee</strong> <span class=\"pf2-icon\">1</span> claw (agile), <strong>Damage</strong> 4d6 slashing;</li>\n<li><strong>Melee</strong> <span class=\"pf2-icon\">1</span> tail (reach 10 feet), <strong>Damage</strong> 3d10 bludgeoning;</li>\n<li><strong>Melee</strong> <span class=\"pf2-icon\">1</span> horns (reach 10 feet), <strong>Damage</strong> 3d8 piercing;</li>\n<li>breath weapon 30-foot cone, [[/r {6d10}[fire]]]{6d10 fire}.</li>\n</ul>\n</li>\n<li><strong>@Compendium[pf2e.spell-effects.Spell Effect: Dragon Form (Green)]{Green}</strong>\n<ul>\n<li>swim Speed 40 feet, ignores difficult terrain from non-magical foliage;</li>\n<li><strong>Melee</strong> <span class=\"pf2-icon\">1</span> jaws, <strong>Damage</strong> 2d12 piercing plus 2d6 poison;</li>\n<li><strong>Melee</strong> <span class=\"pf2-icon\">1</span> claw (agile), <strong>Damage</strong> 3d10 slashing;</li>\n<li><strong>Melee</strong> <span class=\"pf2-icon\">1</span> tail (reach 10 feet), <strong>Damage</strong> 3d10 bludgeoning;</li>\n<li><strong>Melee</strong> <span class=\"pf2-icon\">1</span> horns (reach 10 feet), <strong>Damage</strong> 3d8 piercing;</li>\n<li>breath weapon 30-foot cone, [[/r {10d6}[poison]]]{10d6 poison} (Fortitude save instead of Reflex).</li>\n</ul>\n</li>\n<li><strong>@Compendium[pf2e.spell-effects.Spell Effect: Dragon Form (Red)]{Red}</strong>\n<ul>\n<li>ignore @Compendium[pf2e.conditionitems.Concealed]{Concealed} from smoke;</li>\n<li><strong>Melee</strong> <span class=\"pf2-icon\">1</span> jaws, <strong>Damage</strong> 2d12 piercing plus 2d6 fire;</li>\n<li><strong>Melee</strong> <span class=\"pf2-icon\">1</span> claw ( agile), <strong>Damage</strong> 4d6 slashing;</li>\n<li><strong>Melee</strong> <span class=\"pf2-icon\">1</span> tail (reach 10 feet), <strong>Damage</strong> 3d10 bludgeoning;</li>\n<li><strong>Melee</strong> <span class=\"pf2-icon\">1</span> wing (reach 10 feet), <strong>Damage</strong> 3d8 bludgeoning;</li>\n<li>breath weapon 30-foot cone, [[/r {10d6}[fire]]]{10d6 fire}.</li>\n</ul>\n</li>\n<li><strong>@Compendium[pf2e.spell-effects.Spell Effect: Dragon Form (Silver)]{Silver}</strong>\n<ul>\n<li>cloud walk;</li>\n<li><strong>Melee</strong> <span class=\"pf2-icon\">1</span> jaws, <strong>Damage</strong> 2d12 piercing plus 2d6 cold;</li>\n<li><strong>Melee</strong> <span class=\"pf2-icon\">1</span> claw (agile), <strong>Damage</strong> 3d10 slashing;</li>\n<li><strong>Melee</strong> <span class=\"pf2-icon\">1</span> tail (reach 10), <strong>Damage</strong> 3d10 bludgeoning;</li>\n<li>breath weapon 30-foot cone, [[/r {8d8}[cold]]]{8d8 cold}.</li>\n</ul>\n</li>\n<li><strong>@Compendium[pf2e.spell-effects.Spell Effect: Dragon Form (White)]{White}</strong>\n<ul>\n<li>climb Speed 25 feet on ice only;</li>\n<li><strong>Melee</strong> <span class=\"pf2-icon\">1</span> jaws, <strong>Damage</strong> 3d6 piercing plus 2d6 cold;</li>\n<li><strong>Melee</strong> <span class=\"pf2-icon\">1</span> claw (agile), <strong>Damage</strong> 3d10 slashing;</li>\n<li><strong>Melee</strong> <span class=\"pf2-icon\">1</span> tail (reach 10 feet), <strong>Damage</strong> 3d10 bludgeoning;</li>\n<li>breath weapon 30-foot cone, [[/r {10d6}[cold]]]{10d6 cold}.</li>\n</ul>\n</li>\n</ul>\n<hr />\n<p><strong>Heightened (8th)</strong> Your battle form is Huge, you gain a +20-foot status bonus to your fly Speed, and your attacks have 10-foot reach (or 15-foot reach if they previously had 10-foot reach). You instead gain AC = 21 + your level, 15 temporary HP, an attack modifier of +28, a damage bonus of +12, Athletics +28, and a [[/r +14]] status bonus to breath weapon damage.</p>"
        },
        "duration": {
            "value": "1 minute"
        },
        "hasCounteractCheck": {
            "value": false
        },
        "level": {
            "value": 6
        },
        "location": {
            "value": ""
        },
        "materials": {
            "value": ""
        },
        "prepared": {
            "value": ""
        },
        "primarycheck": {
            "value": ""
        },
        "range": {
            "value": ""
        },
        "rules": [],
        "save": {
            "basic": "",
            "value": ""
        },
        "school": {
            "value": "transmutation"
        },
        "secondarycasters": {
            "value": ""
        },
        "secondarycheck": {
            "value": ""
        },
        "source": {
            "value": "Pathfinder Core Rulebook"
        },
        "spellType": {
            "value": "utility"
        },
        "sustained": {
            "value": false
        },
        "target": {
            "value": ""
        },
        "time": {
            "value": "2"
        },
        "traditions": {
            "value": [
                "arcane",
                "primal"
            ]
        },
        "traits": {
            "custom": "",
            "rarity": {
                "value": "common"
            },
            "value": [
                "polymorph"
            ]
        }
    },
    "effects": [],
    "flags": {},
    "img": "systems/pf2e/icons/spells/dragon-form.webp",
    "name": "Dragon Form",
    "type": "spell"
}
