{
    "_id": "AfOpnnwdZwHi2Tnc",
    "data": {
        "ability": {
            "value": ""
        },
        "area": {
            "areaType": "",
            "value": ""
        },
        "autoHeightenLevel": {
            "value": null
        },
        "category": {
            "value": "spell"
        },
        "components": {
            "focus": false,
            "material": false,
            "somatic": false,
            "verbal": true
        },
        "cost": {
            "value": ""
        },
        "damage": {
            "value": {}
        },
        "description": {
            "value": "<p>You extend your aura, as a magical shield that protects your eidolon or minion. The target gains a +1 circumstance bonus to AC until the start of your next turn. You gain the @Compendium[pf2e.actionspf2e.Life Block]{Life Block} reaction; after using the reaction, the spell ends and you can't cast protect companion again for 10 minutes.</p>\n<p>@Compendium[pf2e.spell-effects.Spell Effect: Protect Companion]{Spell Effect: Protect Companion}</p>\n<hr />\n<p><strong>Heightened (+2)</strong> The reaction reduces the damage by another 10, and you lose 5 more Hit Points. If you want to lose fewer Hit Points, you can choose to lower the damage reduction and HP lost to what any lower-level version of the spell could do without lowering the spell's actual level.</p>"
        },
        "duration": {
            "value": "until the start of your next turn"
        },
        "hasCounteractCheck": {
            "value": false
        },
        "level": {
            "value": 1
        },
        "location": {
            "value": ""
        },
        "materials": {
            "value": ""
        },
        "range": {
            "value": "30 feet"
        },
        "rules": [],
        "save": {
            "basic": "",
            "value": ""
        },
        "school": {
            "value": "abjuration"
        },
        "source": {
            "value": "Pathfinder Secrets of Magic"
        },
        "spellType": {
            "value": "utility"
        },
        "sustained": {
            "value": false
        },
        "target": {
            "value": "your eidolon, or a creature with the minion trait under your control"
        },
        "time": {
            "value": "1"
        },
        "traditions": {
            "custom": "",
            "value": [
                "arcane",
                "divine",
                "occult",
                "primal"
            ]
        },
        "traits": {
            "custom": "",
            "rarity": {
                "value": "common"
            },
            "value": [
                "cantrip"
            ]
        }
    },
    "effects": [],
    "flags": {},
    "img": "systems/pf2e/icons/spells/protect-companion.webp",
    "name": "Protect Companion",
    "type": "spell"
}
