{
    "_id": "IkGYwHRLhkuoGReG",
    "data": {
        "ability": {
            "value": ""
        },
        "area": {
            "areaType": "",
            "value": null
        },
        "areasize": {
            "value": ""
        },
        "category": {
            "value": "spell"
        },
        "components": {
            "material": true,
            "somatic": true,
            "verbal": true
        },
        "cost": {
            "value": "diamonds worth a total value of the target's level (minimum 1) × 200 gp"
        },
        "damage": {
            "value": {}
        },
        "description": {
            "value": "<p>You attempt to call forth the dead creature's soul, requiring the creature's body to be present and relatively intact. The creature must have died within the past 3 days. If Pharasma has decided that the creature's time has come (at the GM's discretion), or if the creature doesn't wish to return to life, this spell automatically fails, but the diamonds aren't consumed in the casting.</p>\n<p>If the spell is successful, the creature returns to life with 1 Hit Point, no spells prepared or spell slots available, no points in any pools or any other daily resources, and still with any long-term debilitations of the old body. The time spent in the Boneyard leaves the target temporarily debilitated, making it @Compendium[pf2e.conditionitems.Clumsy]{Clumsy 2}, @Compendium[pf2e.conditionitems.Drained]{Drained 2}, and @Compendium[pf2e.conditionitems.Enfeebled]{Enfeebled 2} for 1 week; these conditions can't be removed or reduced by any means until the week has passed. The creature is also permanently changed by its time in the afterlife, such as a slight personality shift, a streak of white in the hair, or a strange new birthmark.</p>\n<hr />\n<p><strong>Heightened (7th)</strong> The maximum level of the target increases to 15. The cost increases to the target's level (minimum 1) × 400 gp.</p>\n<p><strong>Heightened (8th)</strong> The maximum level of the target increases to 17. The cost increases to the target's level (minimum 1) × 800 gp.</p>\n<p><strong>Heightened (9th)</strong> The maximum level of the target increases to 19. The cost increases to the target's level (minimum 1) × 1,600 gp.</p>\n<p><strong>Heightened (10th)</strong> The maximum level of the target increases to 21. The cost increases to the target's level (minimum 1) × 3,200 gp.</p>"
        },
        "duration": {
            "value": ""
        },
        "hasCounteractCheck": {
            "value": false
        },
        "level": {
            "value": 6
        },
        "location": {
            "value": ""
        },
        "materials": {
            "value": ""
        },
        "prepared": {
            "value": ""
        },
        "primarycheck": {
            "value": ""
        },
        "range": {
            "value": "10 feet"
        },
        "rules": [],
        "save": {
            "basic": "",
            "value": ""
        },
        "school": {
            "value": "necromancy"
        },
        "secondarycasters": {
            "value": ""
        },
        "secondarycheck": {
            "value": ""
        },
        "source": {
            "value": "Pathfinder Core Rulebook"
        },
        "spellType": {
            "value": "heal"
        },
        "sustained": {
            "value": false
        },
        "target": {
            "value": "1 dead creature of 13th level or lower"
        },
        "time": {
            "value": "10 minutes"
        },
        "traditions": {
            "value": [
                "divine"
            ]
        },
        "traits": {
            "custom": "",
            "rarity": {
                "value": "uncommon"
            },
            "value": [
                "healing"
            ]
        }
    },
    "effects": [],
    "flags": {},
    "img": "systems/pf2e/icons/spells/raise-dead.webp",
    "name": "Raise Dead",
    "type": "spell"
}
