{
    "_id": "EEvA4uj8h3zDiAfP",
    "data": {
        "actionCategory": {
            "value": ""
        },
        "actionType": {
            "value": "passive"
        },
        "actions": {
            "value": null
        },
        "description": {
            "value": "<p>You have adapted particularly well to living in forested environments. As long as you are in a forest or jungle, you gain a +2 circumstance bonus to Stealth checks to @Compendium[pf2e.actionspf2e.Hide]{Hide}and @Compendium[pf2e.actionspf2e.Sneak]{Sneak}, Survival checks to @Compendium[pf2e.actionspf2e.Subsist]{Subsist}, and your Survival DC to @Compendium[pf2e.actionspf2e.Cover Tracks]{Cover Tracks}.</p>"
        },
        "featType": {
            "value": "heritage"
        },
        "level": {
            "value": 1
        },
        "location": "",
        "prerequisites": {
            "value": []
        },
        "rules": [
            {
                "key": "FlatModifier",
                "label": "Treedweller Goblin (Subsist)",
                "predicate": {
                    "any": [
                        "action:subsist"
                    ]
                },
                "selector": "survival",
                "type": "circumstance",
                "value": 2
            },
            {
                "key": "FlatModifier",
                "label": "Treedweller Goblin (Hide or Sneak)",
                "predicate": {
                    "any": [
                        "action:hide",
                        "action:sneak"
                    ]
                },
                "selector": "stealth",
                "type": "circumstance",
                "value": 2
            }
        ],
        "source": {
            "value": ""
        },
        "traits": {
            "custom": "",
            "rarity": {
                "value": "common"
            },
            "value": [
                "goblin"
            ]
        }
    },
    "effects": [],
    "flags": {},
    "img": "systems/pf2e/icons/features/ancestry/treedweller-goblin.webp",
    "name": "Treedweller Goblin",
    "type": "feat"
}
