{
    "_id": "evXJISqyhl3fHE9u",
    "data": {
        "actionCategory": {
            "value": ""
        },
        "actionType": {
            "value": "passive"
        },
        "actions": {
            "value": null
        },
        "description": {
            "value": "<p>The prehensile vines woven into your body grant you unmatched skill at climbing. You do not need to have any hands free to @Compendium[pf2e.actionspf2e.Climb]{Climb}. Additionally, if you roll a success on an Athletics check to climb, you get a critical success instead.</p>"
        },
        "featType": {
            "value": "heritage"
        },
        "level": {
            "value": 1
        },
        "location": "",
        "prerequisites": {
            "value": []
        },
        "rules": [
            {
                "key": "Note",
                "predicate": {
                    "all": [
                        "action:climb"
                    ]
                },
                "selector": "athletics",
                "text": "<p class='compact-text'><strong>{item|name}</strong> When you roll a success to Climb, you get a critical success instead.</p>"
            }
        ],
        "source": {
            "value": ""
        },
        "traits": {
            "custom": "",
            "rarity": {
                "value": "common"
            },
            "value": [
                "leshy"
            ]
        }
    },
    "effects": [],
    "flags": {},
    "img": "systems/pf2e/icons/features/ancestry/vine-leshy.webp",
    "name": "Vine Leshy",
    "type": "feat"
}
