{
    "_id": "LO9STvskJemPkiAI",
    "data": {
        "abilityBoostLevels": {
            "value": [
                5,
                10,
                15,
                20
            ]
        },
        "ancestryFeatLevels": {
            "value": [
                1,
                5,
                9,
                13,
                17
            ]
        },
        "attacks": {
            "advanced": 0,
            "martial": 0,
            "other": {
                "name": "Rapier, Sap, Shortbow, and Shortsword",
                "rank": 1
            },
            "simple": 1,
            "unarmed": 1
        },
        "classDC": 1,
        "classFeatLevels": {
            "value": [
                1,
                2,
                4,
                6,
                8,
                10,
                12,
                14,
                16,
                18,
                20
            ]
        },
        "defenses": {
            "heavy": 0,
            "light": 1,
            "medium": 0,
            "unarmored": 1
        },
        "description": {
            "value": "<p><em>You are skilled and opportunistic . Using your sharp wits and quick reactions, you take advantage of your opponents' missteps and strike where it hurts most. You play a dangerous game, seeking thrills and testing your skills, and likely don't care much for any laws that happen to get in your way. While the path of every rogue is unique and riddled with danger, the one thing you all share in common is the breadth and depth of your skills.</em></p>\n<p><strong>Key Ability: DEXTERITY OR OTHER</strong></p>\n<p>At 1st level, your class gives you an ability boost to Dexterity or an option from rogue's racket.</p>\n<p><strong>Hit Points: 8 plus your Constitution modifier</strong></p>\n<p>You increase your maximum number of HP by this number at 1st level and every level thereafter.</p>\n<h1 class=\"title\">Roleplaying the Rogue</h1>\n<h2 class=\"title\">During Combat Encounters...</h2>\n<p>You move about stealthily so you can catch foes unawares. You're a precision instrument, more useful against a tough boss or distant spellcaster than against rank-and-file soldiers.</p>\n<h2 class=\"title\">During Social Encounters...</h2>\n<p>Your skills give you multiple tools to influence your opposition. Pulling cons and ferreting out information are second nature to you.</p>\n<h2 class=\"title\">While Exploring...</h2>\n<p>You sneak to get the drop on foes and scout for danger or traps. You're a great asset, since you can disable traps, solve puzzles, and anticipate dangers.</p>\n<h2 class=\"title\">In Downtime...</h2>\n<p>You might pick pockets or trade in illegal goods. You can also become part of a thieves' guild, or even found one of your own.</p>\n<h2 class=\"title\">You Might...</h2>\n<ul>\n<li>Hone your skills through intense practice, both on your own and out in the world.</li>\n<li>Know where to attain illicit goods.</li>\n<li>Skirt or break the law because you think it's meaningless or have your own code.</li>\n</ul>\n<h2 class=\"title\">Others Probably...</h2>\n<ul>\n<li>Find you charming or fascinating, even if they think they know better than to trust you.</li>\n<li>Come to you when they need someone who is willing to take risks or use questionable methods.</li>\n<li>Suspect you're motivated primarily by greed.</li>\n</ul>\n<h1 class=\"title\">Initial Proficiencies</h1>\n<p>At 1st level, you gain the listed proficiency ranks in the following statistics. You are untrained in anything not listed unless you gain a better proficiency rank in some other way.</p>\n<h2 class=\"title\">Perception</h2>\n<p>Expert in Perception</p>\n<h2 class=\"title\">Saving Throws</h2>\n<p>Trained in Fortitude</p>\n<p>Expert in Reflex</p>\n<p>Expert in Will</p>\n<h2 class=\"title\">Skills</h2>\n<p>Trained in Stealth</p>\n<p>Trained in one or more skills determined by your rogue's racket</p>\n<p>Trained in a number of additional skills equal to 7 plus your Intelligence modifier</p>\n<h2 class=\"title\">Attacks</h2>\n<p>Trained in simple weapons</p>\n<p>Trained in the rapier, sap, shortbow, and shortsword</p>\n<p>Trained in unarmed attacks</p>\n<h2 class=\"title\">Defenses</h2>\n<p>Trained in light armor</p>\n<p>Trained in unarmored defense</p>\n<h2 class=\"title\">Class DC</h2>\n<p>Trained in rogue class DC</p>\n<h1 class=\"title\">Class Features</h1>\n<p>You gain these features as a Rogue. Abilities gained at higher levels list the levels at which you gain them next to the features' names.</p>\n<table class=\"pf2-table\">\n<thead>\n<tr>\n<th>Your Level</th>\n<th>Class Features</th>\n</tr>\n</thead>\n<tbody>\n<tr>\n<td>1</td>\n<td>Ancestry and background, initial proficiencies, rogue's racket, sneak attack 1d6, surprise attack, rogue feat, skill feat</td>\n</tr>\n<tr>\n<td>2</td>\n<td>Rogue feat, skill feat, skill increase</td>\n</tr>\n<tr>\n<td>3</td>\n<td>Deny advantage, general feat, skill feat, skill increase</td>\n</tr>\n<tr>\n<td>4</td>\n<td>Rogue feat, skill feat, skill increase</td>\n</tr>\n<tr>\n<td>5</td>\n<td>Ability boosts, ancestry feat, skill feat, skill increase, sneak attack 2d6, weapon tricks</td>\n</tr>\n<tr>\n<td>6</td>\n<td>Rogue feat, skill feat, skill increase</td>\n</tr>\n<tr>\n<td>7</td>\n<td>Evasion, general feat, skill feat, skill increase, vigilant senses, weapon specialization</td>\n</tr>\n<tr>\n<td>8</td>\n<td>Rogue feat, skill feat, skill increase</td>\n</tr>\n<tr>\n<td>9</td>\n<td>Ancestry feat, debilitating strike, great fortitude, skill feat, skill increase</td>\n</tr>\n<tr>\n<td>10</td>\n<td>Ability boosts, rogue feat, skill feat, skill increase</td>\n</tr>\n<tr>\n<td>11</td>\n<td>General feat, rogue expertise, skill feat, skill increase, sneak attack 3d6</td>\n</tr>\n<tr>\n<td>12</td>\n<td>Rogue feat, skill feat, skill increase</td>\n</tr>\n<tr>\n<td>13</td>\n<td>Ancestry feat, improved evasion, incredible senses, light armor expertise, master tricks, skill feat, skill increase</td>\n</tr>\n<tr>\n<td>14</td>\n<td>Rogue feat, skill feat, skill increase</td>\n</tr>\n<tr>\n<td>15</td>\n<td>Ability boosts, double debilitation, general feat, greater weapon specialization, skill feat, skill increase</td>\n</tr>\n<tr>\n<td>16</td>\n<td>Rogue feat, skill feat, skill increase</td>\n</tr>\n<tr>\n<td>17</td>\n<td>Ancestry feat, skill feat, skill increase, slippery mind, sneak attack 4d6</td>\n</tr>\n<tr>\n<td>18</td>\n<td>Rogue feat, skill feat, skill increase</td>\n</tr>\n<tr>\n<td>19</td>\n<td>General feat, light armor mastery, master strike, skill feat, skill increase</td>\n</tr>\n<tr>\n<td>20</td>\n<td>Ability boosts, rogue feat, skill feat, skill increase</td>\n</tr>\n</tbody>\n</table>\n<h2 class=\"title\">Ancestry and Background</h2>\n<p>In addition to what you get from your class at 1st level, you have the benefits of your selected ancestry and background.</p>\n<h2 class=\"title\">Initial Proficiencies</h2>\n<p>At 1st level, you gain a number of proficiencies that represent your basic training. These proficiencies are noted at the start of this class.</p>\n<h2 class=\"title\">Rogue Feats</h2>\n<p>At 1st level and every even-numbered level, you gain a rogue class feat.</p>\n<h2 class=\"title\">Rogue's Racket</h2>\n<p>As you started on the path of the rogue, you began to develop your own style to pursue your illicit activities. Your racket shapes your rogue techniques and the way you approach a job, while building your reputation in the criminal underworld for a certain type of work. A client with deep pockets might even hire a team of rogues for a particular heist, each specializing in a different racket, in order to cover all the bases. Choose a rogue's racket.</p>\n<p>Rackets can be found here:</p>\n<ul>\n<li>@Compendium[pf2e.classfeatures.Eldritch Trickster Racket]{Eldritch Trickster Racket},</li>\n<li>@Compendium[pf2e.classfeatures.Mastermind Racket]{Mastermind Racket},</li>\n<li>@Compendium[pf2e.classfeatures.Ruffian Racket]{Ruffian Racket},</li>\n<li>@Compendium[pf2e.classfeatures.Scoundrel Racket]{Scoundrel Racket}, and</li>\n<li>@Compendium[pf2e.classfeatures.Thief Racket]{Thief Racket}</li>\n</ul>\n<h2 class=\"title\">Skill Feats</h2>\n<p>You gain skill feats more often than others. At 1st level and every level thereafter, you gain a skill feat.</p>\n<h2 class=\"title\">Sneak Attack</h2>\n<p>When your enemy can't properly defend itself, you take advantage to deal extra damage. If you Strike a creature that has the @Compendium[pf2e.conditionitems.Flat-Footed]{Flat-Footed} condition with an agile or finesse melee weapon, an agile or finesse unarmed attack, or a ranged weapon attack, you deal an extra 1d6 precision damage. For a ranged attack with a thrown melee weapon, that weapon must also be agile or finesse.</p>\n<p>As your rogue level increases, so does the number of damage dice for your sneak attack. Increase the number of dice by one at 5th, 11th, and 17th levels.</p>\n<h2 class=\"title\">Surprise Attack</h2>\n<p>You spring into combat faster than foes can react. On the first round of combat, if you roll Deception or Stealth for initiative, creatures that haven't acted are flat-footed to you.</p>\n<h2 class=\"title\">Skill Increases<span style=\"float: right;\">Level 2</span></h2>\n<p>You gain more skill increases than members of other classes. At 2nd level and every level thereafter, you gain a skill increase. You can use this increase to either become trained in one skill you're untrained in, or to become an expert in one skill in which you're already trained.</p>\n<p>At 7th level, you can use skill increases to become a master in a skill in which you're already an expert, and at 15th level, you can use them to become legendary in a skill in which you're already a master.</p>\n<h2 class=\"title\">Deny Advantage<span style=\"float: right;\">Level 3</span></h2>\n<p>As someone who takes advantage of others' defenses, you are careful not to leave such openings yourself. You aren't flat-footed to hidden, undetected, or flanking creatures of your level or lower, or creatures of your level or lower using surprise attack. However, they can still help their allies flank.</p>\n<h2 class=\"title\">General Feats<span style=\"float: right;\">Level 3</span></h2>\n<p>At 3rd level and every 4 levels thereafter, you gain a general feat.</p>\n<h2 class=\"title\">Ability Boosts<span style=\"float: right;\">Level 5</span></h2>\n<p>At 5th level and every 5 levels thereafter, you boost four different ability scores. You can use these ability boosts to increase your ability scores above 18. Boosting an ability score increases it by 1 if it's already 18 or above, or by 2 if it starts out below 18.</p>\n<h2 class=\"title\">Ancestry Feats<span style=\"float: right;\">Level 5</span></h2>\n<p>In addition to the initial ancestry feat you started with, you gain an ancestry feat at 5th level and every 4 levels thereafter.</p>\n<h2 class=\"title\">Weapon Tricks<span style=\"float: right;\">Level 5</span></h2>\n<p>You have become thoroughly familiar with the tools of your trade. You gain expert proficiency in simple weapons and unarmed attacks, as well as the rapier, sap, shortbow, and shortsword. When you critically succeed at an attack roll against a flat-footed creature while using an agile or finesse simple weapon or any of the listed weapons, you apply the critical specialization effect for the weapon you're wielding.</p>\n<h2 class=\"title\">Evasion<span style=\"float: right;\">Level 7</span></h2>\n<p>You've learned to move quickly to avoid explosions, dragons' breath, and worse. Your proficiency rank for Reflex saves increases to master. When you roll a success on a Reflex save, you get a critical success instead.</p>\n<h2 class=\"title\">Vigilant Senses<span style=\"float: right;\">Level 7</span></h2>\n<p>Through your adventures, you've developed keen awareness and attention to detail. Your proficiency rank for Perception increases to master.</p>\n<h2 class=\"title\">Weapon Specialization<span style=\"float: right;\">Level 7</span></h2>\n<p>You've learned how to inflict greater injuries with the weapons you know best. You deal 2 additional damage with weapons and unarmed attacks in which you are an expert. This damage increases to 3 damage if you're a master, and 4 damage if you're legendary.</p>\n<h2 class=\"title\">Debilitating Strikes<span style=\"float: right;\">Level 9</span></h2>\n<p>When taking advantage of an opening, you both hinder and harm your foe. You gain the Debilitating Strike free action.</p>\n<h3 class=\"title\">@Compendium[pf2e.actionspf2e.Debilitating Strike]{Debilitating Strike} <span class=\"pf2-icon\">F</span></h3>\n<p><strong>Trigger</strong> Your Strike hits a flat-footed creature and deals damage.</p>\n<hr />\n<p>You apply one of the following debilitations, which lasts until the end of your next turn.</p>\n<p><strong>Debilitation</strong> The target takes a -10-foot status penalty to its Speeds.</p>\n<p><strong>Debilitation</strong> The target becomes enfeebled 1.</p>\n<h2 class=\"title\">Great Fortitude<span style=\"float: right;\">Level 9</span></h2>\n<p>Your physique is incredibly hardy. Your proficiency rank for Fortitude saves increases to expert.</p>\n<h2 class=\"title\">Rogue Expertise<span style=\"float: right;\">Level 11</span></h2>\n<p>Your techniques are now harder to resist. Your proficiency rank for your rogue class DC increases to expert.</p>\n<h2 class=\"title\">Improved Evasion<span style=\"float: right;\">Level 13</span></h2>\n<p>You elude danger to a degree that few can match. Your proficiency rank for Reflex saves increases to legendary. When you roll a critical failure on a Reflex save, you get a failure instead. When you roll a failure on a Reflex save against a damaging effect, you take half damage.</p>\n<h2 class=\"title\">Incredible Senses<span style=\"float: right;\">Level 13</span></h2>\n<p>You notice things almost impossible for an ordinary person to detect. Your proficiency rank for Perception increases to legendary.</p>\n<h2 class=\"title\">Light Armor Expertise<span style=\"float: right;\">Level 13</span></h2>\n<p>You've learned how to dodge while wearing light or no armor. Your proficiency ranks for light armor and unarmored defense increase to expert.</p>\n<h2 class=\"title\">Master Tricks<span style=\"float: right;\">Level 13</span></h2>\n<p>You've mastered a rogue's fighting moves. Your proficiency ranks increase to master for all simple weapons and unarmed attacks plus the rapier, sap, shortbow, and shortsword.</p>\n<h2 class=\"title\">Double Debilitation<span style=\"float: right;\">Level 15</span></h2>\n<p>Your opportunistic attacks are particularly detrimental. When you use Debilitating Strike, you can apply two debilitations simultaneously; removing one removes both.</p>\n<h2 class=\"title\">Greater Weapon Specialization<span style=\"float: right;\">Level 15</span></h2>\n<p>Your damage from weapon specialization increases to 4 with weapons and unarmed attacks in which you're an expert, 6 if you're a master, and 8 if you're legendary.</p>\n<h2 class=\"title\">Slippery Mind<span style=\"float: right;\">Level 17</span></h2>\n<p>You play mental games and employ cognitive tricks to throw off mind-altering effects. Your proficiency rank for Will saves increases to master. When you roll a success at a Will save, you get a critical success instead.</p>\n<h2 class=\"title\">Light Armor Mastery<span style=\"float: right;\">Level 19</span></h2>\n<p>Your skill with light armor improves, increasing your ability to dodge blows. Your proficiency ranks for light armor and unarmored defense increase to master.</p>\n<h2 class=\"title\">Master Strike<span style=\"float: right;\">Level 19</span></h2>\n<p>You can incapacitate an unwary foe with a single strike. Your proficiency rank for your rogue class DC increases to master. You gain the Master Strike free action.</p>\n<h3 class=\"title\">@Compendium[pf2e.actionspf2e.Master Strike]{Master Strike} <span class=\"pf2-icon\">F</span></h3>\n<p><strong>Trigger</strong> Your Strike hits a flat-footed creature and deals damage.</p>\n<hr />\n<p>The target attempts a Fortitude save at your class DC. It then becomes temporarily immune to your Master Strike for 1 day.</p>\n<hr />\n<p><strong>Critical Success</strong> The target is unaffected.</p>\n<p><strong>Success</strong> The target is enfeebled 2 until the end of your next turn.</p>\n<p><strong>Failure</strong> The target is paralyzed for 4 rounds.</p>\n<p><strong>Critical Failure</strong> The target is paralyzed for 4 rounds, knocked unconscious for 2 hours, or killed (your choice).</p>"
        },
        "generalFeatLevels": {
            "value": [
                3,
                7,
                11,
                15,
                19
            ]
        },
        "hp": 8,
        "items": {
            "0kdn2": {
                "id": "WiM7X4xmpMx4s6LD",
                "img": "systems/pf2e/icons/features/classes/weapon-specialization.webp",
                "level": 7,
                "name": "Weapon Specialization (Level 7)",
                "pack": "pf2e.classfeatures"
            },
            "1nwhg": {
                "id": "v8UNEJR5IDKi8yqa",
                "img": "systems/pf2e/icons/features/classes/weapon-tricks.webp",
                "level": "5",
                "name": "Weapon Tricks",
                "pack": "pf2e.classfeatures"
            },
            "1zn3l": {
                "id": "SHpjmM4A3Sw4GgDz",
                "img": "systems/pf2e/icons/features/classes/light-armor-master.webp",
                "level": 19,
                "name": "Light Armor Mastery (Level 19)",
                "pack": "pf2e.classfeatures"
            },
            "2xl4q": {
                "id": "myvcir1LEkaVxOlE",
                "img": "systems/pf2e/icons/features/classes/master-tricks.webp",
                "level": "13",
                "name": "Master Tricks",
                "pack": "pf2e.classfeatures"
            },
            "4al2i": {
                "id": "Z7HX6TeFsaup7Dx9",
                "img": "systems/pf2e/icons/features/classes/greater-weapon-specialization.webp",
                "level": 15,
                "name": "Greater Weapon Specialization (Level 15)",
                "pack": "pf2e.classfeatures"
            },
            "517c6": {
                "id": "25GSAotUcDwInYgG",
                "img": "systems/pf2e/icons/features/classes/great-fortitude.webp",
                "level": 9,
                "name": "Great Fortitude (Level 9)",
                "pack": "pf2e.classfeatures"
            },
            "6ddtr": {
                "id": "pZYkb12t5DSwtts7",
                "img": "systems/pf2e/icons/features/classes/light-armor-expertise.webp",
                "level": 13,
                "name": "Light Armor Expertise (Level 13)",
                "pack": "pf2e.classfeatures"
            },
            "8tar0": {
                "id": "nLwPMPLRne1HnL00",
                "img": "systems/pf2e/icons/features/classes/incredible-sense.webp",
                "level": 13,
                "name": "Incredible Senses (Level 13)",
                "pack": "pf2e.classfeatures"
            },
            "cifjd": {
                "id": "f3Dh32EU4VsHu01b",
                "img": "systems/pf2e/icons/features/classes/rogue-expertise.webp",
                "level": "11",
                "name": "Rogue Expertise",
                "pack": "pf2e.classfeatures"
            },
            "e9ikq": {
                "id": "j1JE61quDxdge4mg",
                "img": "systems/pf2e/icons/features/classes/sneak-attack.webp",
                "level": "1",
                "name": "Sneak Attack",
                "pack": "pf2e.classfeatures"
            },
            "g1dmk": {
                "id": "L5D0NwFXdLiVSnk5",
                "img": "systems/pf2e/icons/features/classes/improved-evasion.webp",
                "level": 13,
                "name": "Improved Evasion (Level 13)",
                "pack": "pf2e.classfeatures"
            },
            "hg9s4": {
                "id": "xmZ7oeTDcQVXegUP",
                "img": "systems/pf2e/icons/features/classes/slippery-mind.webp",
                "level": 17,
                "name": "Slippery Mind",
                "pack": "pf2e.classfeatures"
            },
            "i70zj": {
                "id": "0npO4rPscGm0dX13",
                "img": "systems/pf2e/icons/features/classes/vigilant-senses.webp",
                "level": 7,
                "name": "Vigilant Senses (Level 7)",
                "pack": "pf2e.classfeatures"
            },
            "nilrb": {
                "id": "9SruVg2lZpNaYLOB",
                "img": "systems/pf2e/icons/features/classes/debilitating-strikes.webp",
                "level": "9",
                "name": "Debilitating Strikes",
                "pack": "pf2e.classfeatures"
            },
            "odz8x": {
                "id": "uGuCGQvUmioFV2Bd",
                "img": "systems/pf2e/icons/features/classes/choice-feature.webp",
                "level": 1,
                "name": "Rogue's Racket",
                "pack": "pf2e.classfeatures"
            },
            "pfjze": {
                "id": "W1FkMHYVDg3yTU5r",
                "img": "systems/pf2e/icons/features/classes/double-debilitation.webp",
                "level": "15",
                "name": "Double Debilitation",
                "pack": "pf2e.classfeatures"
            },
            "qx6de": {
                "id": "w6rMqmGzhUahdnA7",
                "img": "systems/pf2e/icons/features/classes/surprice-attack.webp",
                "level": "1",
                "name": "Surprise Attack",
                "pack": "pf2e.classfeatures"
            },
            "sjjee": {
                "id": "PNpmVmD21zViDtGC",
                "img": "systems/pf2e/icons/features/classes/deny-advantage.webp",
                "level": 3,
                "name": "Deny Advantage (Level 3)",
                "pack": "pf2e.classfeatures"
            },
            "thypm": {
                "id": "SUUdWG0t33VKa5q4",
                "img": "systems/pf2e/icons/features/classes/master-strike.webp",
                "level": 19,
                "name": "Master Strike",
                "pack": "pf2e.classfeatures"
            },
            "xn3fx": {
                "id": "MV6XIuAgN9uSA0Da",
                "img": "systems/pf2e/icons/features/classes/evasion.webp",
                "level": 7,
                "name": "Evasion (Level 7)",
                "pack": "pf2e.classfeatures"
            }
        },
        "keyAbility": {
            "value": [
                "cha",
                "dex",
                "int",
                "str"
            ]
        },
        "perception": 2,
        "rules": [
            {
                "key": "ActiveEffectLike",
                "mode": "upgrade",
                "path": "data.skills.ste.rank",
                "value": 1
            },
            {
                "key": "ActiveEffectLike",
                "mode": "upgrade",
                "path": "data.martial.weapon-base-rapier.rank",
                "value": 1
            },
            {
                "key": "ActiveEffectLike",
                "mode": "upgrade",
                "path": "data.martial.weapon-base-sap.rank",
                "value": 1
            },
            {
                "key": "ActiveEffectLike",
                "mode": "upgrade",
                "path": "data.martial.weapon-base-shortbow.rank",
                "value": 1
            },
            {
                "key": "ActiveEffectLike",
                "mode": "upgrade",
                "path": "data.martial.weapon-base-shortsword.rank",
                "value": 1
            }
        ],
        "savingThrows": {
            "fortitude": 1,
            "reflex": 2,
            "will": 2
        },
        "skillFeatLevels": {
            "value": [
                1,
                2,
                3,
                4,
                5,
                6,
                7,
                8,
                9,
                10,
                11,
                12,
                13,
                14,
                15,
                16,
                17,
                18,
                19,
                20
            ]
        },
        "skillIncreaseLevels": {
            "value": [
                2,
                3,
                4,
                5,
                6,
                7,
                8,
                9,
                10,
                11,
                12,
                13,
                14,
                15,
                16,
                17,
                18,
                19,
                20
            ]
        },
        "source": {
            "value": "Pathfinder Core Rulebook"
        },
        "trainedSkills": {
            "additional": 7,
            "value": [
                "ste"
            ]
        },
        "traits": {
            "custom": "",
            "rarity": {
                "value": "common"
            },
            "value": []
        }
    },
    "effects": [],
    "flags": {},
    "img": "systems/pf2e/icons/classes/rogue.webp",
    "name": "Rogue",
    "type": "class"
}
