{
    "_id": "SKjVvQcRQmnDoouw",
    "data": {
        "description": {
            "value": "<p><strong>Effect</strong>: While working with less experienced Pathfinder allies, you provide vital advice to sharpen your newer colleagues' skills. For any PCs benefiting from a Level Bump and whose levels are lower than yours, you increase the Level Bump's modifier to skill checks to 2.</p>\n<p><strong>Normal</strong>: A Level Bump increases a PC's skill check modifiers by 1.</p>\n<p><strong>Special</strong>: A PC can only benefit from two mentor boons.</p>"
        },
        "duration": {
            "expiry": "turn-start",
            "sustained": false,
            "unit": "unlimited",
            "value": -1
        },
        "level": {
            "value": 1
        },
        "rules": [
            {
                "key": "FlatModifier",
                "label": "Skillful Mentor Adjustment",
                "selector": "skill-check",
                "value": 1
            }
        ],
        "source": {
            "value": ""
        },
        "start": {
            "initiative": null,
            "value": 0
        },
        "target": null,
        "tokenIcon": {
            "show": false
        },
        "traits": {
            "custom": "",
            "rarity": {
                "value": "common"
            },
            "value": []
        }
    },
    "effects": [],
    "flags": {},
    "img": "systems/pf2e/icons/default-icons/effect.svg",
    "name": "Effect: Skillful Mentor Boon (PFS)",
    "type": "effect"
}
